HeatTreee Visualizations
…
## Warning in wilcox.test.default(abund_1, abund_2): cannot compute exact p-
## value with ties

## Warning in wilcox.test.default(abund_1, abund_2): cannot compute exact p-
## value with ties

## Warning in wilcox.test.default(abund_1, abund_2): cannot compute exact p-
## value with ties

## Warning in wilcox.test.default(abund_1, abund_2): cannot compute exact p-
## value with ties

print(obj$data$diff_table)

## # A tibble: 11,034 x 7
##    taxon_id treatment_1 treatment_2 log2_median_rat median_diff mean_diff
##    <chr>    <chr>       <chr>                  <dbl>       <dbl>     <dbl>
##  1 aab      DCM         SRF                   0          0         0      
##  2 aac      DCM         SRF                   0.417      0.0123    0.0148 
##  3 aad      DCM         SRF                  -0.0532    -0.0340   -0.0341 
##  4 aae      DCM         SRF                   0.926      0.0179    0.0192 
##  5 aaf      DCM         SRF                   0.417      0.0123    0.0148 
##  6 aag      DCM         SRF                  -0.0619    -0.0266   -0.0300 
##  7 aah      DCM         SRF                  -0.307     -0.0273   -0.0294 
##  8 aai      DCM         SRF                   5.42       0.00313   0.00524
##  9 aaj      DCM         SRF                   0.688      0.0163    0.0186 
## 10 aak      DCM         SRF                   0.790      0.0139    0.0140 
## #  with 11,024 more rows, and 1 more variable: wilcox_p_value <dbl>
…
